{ "frames": {
   "redheartanim 0.aseprite": {
    "frame": { "x": 0, "y": 0, "w": 60, "h": 60 },
    "rotated": false,
    "trimmed": false,
    "spriteSourceSize": { "x": 0, "y": 0, "w": 60, "h": 60 },
    "sourceSize": { "w": 60, "h": 60 },
    "duration": 100
   },
   "redheartanim 1.aseprite": {
    "frame": { "x": 60, "y": 0, "w": 60, "h": 60 },
    "rotated": false,
    "trimmed": false,
    "spriteSourceSize": { "x": 0, "y": 0, "w": 60, "h": 60 },
    "sourceSize": { "w": 60, "h": 60 },
    "duration": 100
   },
   "redheartanim 2.aseprite": {
    "frame": { "x": 120, "y": 0, "w": 60, "h": 60 },
    "rotated": false,
    "trimmed": false,
    "spriteSourceSize": { "x": 0, "y": 0, "w": 60, "h": 60 },
    "sourceSize": { "w": 60, "h": 60 },
    "duration": 100
   },
   "redheartanim 3.aseprite": {
    "frame": { "x": 180, "y": 0, "w": 60, "h": 60 },
    "rotated": false,
    "trimmed": false,
    "spriteSourceSize": { "x": 0, "y": 0, "w": 60, "h": 60 },
    "sourceSize": { "w": 60, "h": 60 },
    "duration": 100
   },
   "redheartanim 4.aseprite": {
    "frame": { "x": 240, "y": 0, "w": 60, "h": 60 },
    "rotated": false,
    "trimmed": false,
    "spriteSourceSize": { "x": 0, "y": 0, "w": 60, "h": 60 },
    "sourceSize": { "w": 60, "h": 60 },
    "duration": 100
   },
   "redheartanim 5.aseprite": {
    "frame": { "x": 300, "y": 0, "w": 60, "h": 60 },
    "rotated": false,
    "trimmed": false,
    "spriteSourceSize": { "x": 0, "y": 0, "w": 60, "h": 60 },
    "sourceSize": { "w": 60, "h": 60 },
    "duration": 100
   },
   "redheartanim 6.aseprite": {
    "frame": { "x": 360, "y": 0, "w": 60, "h": 60 },
    "rotated": false,
    "trimmed": false,
    "spriteSourceSize": { "x": 0, "y": 0, "w": 60, "h": 60 },
    "sourceSize": { "w": 60, "h": 60 },
    "duration": 100
   },
   "redheartanim 7.aseprite": {
    "frame": { "x": 420, "y": 0, "w": 60, "h": 60 },
    "rotated": false,
    "trimmed": false,
    "spriteSourceSize": { "x": 0, "y": 0, "w": 60, "h": 60 },
    "sourceSize": { "w": 60, "h": 60 },
    "duration": 100
   },
   "redheartanim 8.aseprite": {
    "frame": { "x": 480, "y": 0, "w": 60, "h": 60 },
    "rotated": false,
    "trimmed": false,
    "spriteSourceSize": { "x": 0, "y": 0, "w": 60, "h": 60 },
    "sourceSize": { "w": 60, "h": 60 },
    "duration": 100
   },
   "redheartanim 9.aseprite": {
    "frame": { "x": 540, "y": 0, "w": 60, "h": 60 },
    "rotated": false,
    "trimmed": false,
    "spriteSourceSize": { "x": 0, "y": 0, "w": 60, "h": 60 },
    "sourceSize": { "w": 60, "h": 60 },
    "duration": 100
   },
   "redheartanim 10.aseprite": {
    "frame": { "x": 600, "y": 0, "w": 60, "h": 60 },
    "rotated": false,
    "trimmed": false,
    "spriteSourceSize": { "x": 0, "y": 0, "w": 60, "h": 60 },
    "sourceSize": { "w": 60, "h": 60 },
    "duration": 100
   },
   "redheartanim 11.aseprite": {
    "frame": { "x": 660, "y": 0, "w": 60, "h": 60 },
    "rotated": false,
    "trimmed": false,
    "spriteSourceSize": { "x": 0, "y": 0, "w": 60, "h": 60 },
    "sourceSize": { "w": 60, "h": 60 },
    "duration": 100
   },
   "redheartanim 12.aseprite": {
    "frame": { "x": 720, "y": 0, "w": 60, "h": 60 },
    "rotated": false,
    "trimmed": false,
    "spriteSourceSize": { "x": 0, "y": 0, "w": 60, "h": 60 },
    "sourceSize": { "w": 60, "h": 60 },
    "duration": 100
   },
   "redheartanim 13.aseprite": {
    "frame": { "x": 780, "y": 0, "w": 60, "h": 60 },
    "rotated": false,
    "trimmed": false,
    "spriteSourceSize": { "x": 0, "y": 0, "w": 60, "h": 60 },
    "sourceSize": { "w": 60, "h": 60 },
    "duration": 100
   },
   "redheartanim 14.aseprite": {
    "frame": { "x": 840, "y": 0, "w": 60, "h": 60 },
    "rotated": false,
    "trimmed": false,
    "spriteSourceSize": { "x": 0, "y": 0, "w": 60, "h": 60 },
    "sourceSize": { "w": 60, "h": 60 },
    "duration": 100
   },
   "redheartanim 15.aseprite": {
    "frame": { "x": 900, "y": 0, "w": 60, "h": 60 },
    "rotated": false,
    "trimmed": false,
    "spriteSourceSize": { "x": 0, "y": 0, "w": 60, "h": 60 },
    "sourceSize": { "w": 60, "h": 60 },
    "duration": 100
   },
   "redheartanim 16.aseprite": {
    "frame": { "x": 960, "y": 0, "w": 60, "h": 60 },
    "rotated": false,
    "trimmed": false,
    "spriteSourceSize": { "x": 0, "y": 0, "w": 60, "h": 60 },
    "sourceSize": { "w": 60, "h": 60 },
    "duration": 100
   },
   "redheartanim 17.aseprite": {
    "frame": { "x": 1020, "y": 0, "w": 60, "h": 60 },
    "rotated": false,
    "trimmed": false,
    "spriteSourceSize": { "x": 0, "y": 0, "w": 60, "h": 60 },
    "sourceSize": { "w": 60, "h": 60 },
    "duration": 100
   },
   "redheartanim 18.aseprite": {
    "frame": { "x": 1080, "y": 0, "w": 60, "h": 60 },
    "rotated": false,
    "trimmed": false,
    "spriteSourceSize": { "x": 0, "y": 0, "w": 60, "h": 60 },
    "sourceSize": { "w": 60, "h": 60 },
    "duration": 100
   },
   "redheartanim 19.aseprite": {
    "frame": { "x": 1140, "y": 0, "w": 60, "h": 60 },
    "rotated": false,
    "trimmed": false,
    "spriteSourceSize": { "x": 0, "y": 0, "w": 60, "h": 60 },
    "sourceSize": { "w": 60, "h": 60 },
    "duration": 100
   },
   "redheartanim 20.aseprite": {
    "frame": { "x": 1200, "y": 0, "w": 60, "h": 60 },
    "rotated": false,
    "trimmed": false,
    "spriteSourceSize": { "x": 0, "y": 0, "w": 60, "h": 60 },
    "sourceSize": { "w": 60, "h": 60 },
    "duration": 100
   },
   "redheartanim 21.aseprite": {
    "frame": { "x": 1260, "y": 0, "w": 60, "h": 60 },
    "rotated": false,
    "trimmed": false,
    "spriteSourceSize": { "x": 0, "y": 0, "w": 60, "h": 60 },
    "sourceSize": { "w": 60, "h": 60 },
    "duration": 100
   },
   "redheartanim 22.aseprite": {
    "frame": { "x": 1320, "y": 0, "w": 60, "h": 60 },
    "rotated": false,
    "trimmed": false,
    "spriteSourceSize": { "x": 0, "y": 0, "w": 60, "h": 60 },
    "sourceSize": { "w": 60, "h": 60 },
    "duration": 100
   },
   "redheartanim 23.aseprite": {
    "frame": { "x": 1380, "y": 0, "w": 60, "h": 60 },
    "rotated": false,
    "trimmed": false,
    "spriteSourceSize": { "x": 0, "y": 0, "w": 60, "h": 60 },
    "sourceSize": { "w": 60, "h": 60 },
    "duration": 100
   },
   "redheartanim 24.aseprite": {
    "frame": { "x": 1440, "y": 0, "w": 60, "h": 60 },
    "rotated": false,
    "trimmed": false,
    "spriteSourceSize": { "x": 0, "y": 0, "w": 60, "h": 60 },
    "sourceSize": { "w": 60, "h": 60 },
    "duration": 100
   },
   "redheartanim 25.aseprite": {
    "frame": { "x": 1500, "y": 0, "w": 60, "h": 60 },
    "rotated": false,
    "trimmed": false,
    "spriteSourceSize": { "x": 0, "y": 0, "w": 60, "h": 60 },
    "sourceSize": { "w": 60, "h": 60 },
    "duration": 100
   },
   "redheartanim 26.aseprite": {
    "frame": { "x": 1560, "y": 0, "w": 60, "h": 60 },
    "rotated": false,
    "trimmed": false,
    "spriteSourceSize": { "x": 0, "y": 0, "w": 60, "h": 60 },
    "sourceSize": { "w": 60, "h": 60 },
    "duration": 100
   }
 },
 "meta": {
  "app": "http://www.aseprite.org/",
  "version": "1.2.18",
  "image": "redheartanim.png",
  "format": "RGBA8888",
  "size": { "w": 1620, "h": 60 },
  "scale": "1",
  "frameTags": [
  ],
  "layers": [
   { "name": "Layer 1", "opacity": 255, "blendMode": "normal" }
  ],
  "slices": [
  ]
 }
}
