{
  "number": "980623",
  "time": 539,
  "lives": 3,
  "mapData": [
    "  +O+.+.- .O+-  -. .OO-+    @.",
    "-..A.-+ -...- -  - ..-+.  .-- ",
    "   +.O . OA.O .O+ -..--. +- .-",
    " - -OA.--  A+-- O +-.-  A----+",
    "AOO O  O.+ O-. . +   -  -...-.",
    " ..- -- - +   -- .O- O -+.R - ",
    "+ -.-  ---+.- + . .--  .-AO-. ",
    "-  - .. .   ..A  O..  +. O...+",
    " ..@+ - .+ -. - +-. .--++A   .",
    "O - -.. +-----O - O +  --.   +",
    "---A ---  . R A-.+..A-. - A-O ",
    "-.-+-+ A-R- .--- .-- -+.+  ..-",
    "O  -.O .AO---O - -    .-+ --..",
    ".  - - - A -- ..-- .A  A- O.-.",
    "...+.- --+ -..  R- + .+- -- -.",
    ".-  .-+-- -.+A-F ..--O.  .-.+ ",
    " ----- ..  - +++--  +.+  O-   ",
    ". O.-- .-O A...E- .- .-++    .",
    "- ---  -+ - + O  A. - .-.- .-.",
    ".O+- AOA-AO-+  -O -A  ++ -..-.",
    "+.+---.-OO+ .- A--.A+-.-O O.+ ",
    "- --. . OA O.-O.++OA --+.A  + ",
    "-A+- -- . - . +..-   -O--.A+-.",
    ".   .++    -O.-O-O + O----  +O",
    "-- ---  O O .     - .  ---.. A",
    ".-.--.- --.. +-  . - .OA --+.-",
    "-.-A --+-.   .+ . .. .O -  .  ",
    "--   -O.. -.+- -.+-.- --- .--.",
    "  --. -.+O.-A- +  A+..O   O-A ",
    "+   - ....   O -+. +- -- OA..@"
  ]
}